{
  "pools": [
    {
      "rolls": 1,
      "bonus_rolls": 1,
      "entries": [{
	      "conditions": [
	        {
	          "condition": "random_chance_with_looting",
	          "chance": 0.005,
	          "looting_multiplier": 0.001
	        }
	      ],
          "type": "item",
          "weight": 3,
          "name": "minecraft:skull",
          "functions": [
            {
              "function": "set_nbt",
              "tag": "{display:{Name:\"§rEnbee\"},SkullOwner:{Id:\"9227b79f-33cd-5f1f-9554-e662d3f51747\",Properties:{textures:[{Value:\"eyJ0ZXh0dXJlcyI6eyJTS0lOIjp7InVybCI6Imh0dHA6Ly90ZXh0dXJlcy5taW5lY3JhZnQubmV0L3RleHR1cmUvYjQ1MWRkMDQ5MjEzYzBhMjcwYTg3MzAxMTljYzU2ZWUxNjU0MDNhZTE5YWFhMDQ0MTZkMTRiOTRmNDYxMTBkYSJ9fX0=\"}]},Name:\"Enbee\"}}"
            },
            {
              "function": "set_data",
              "data": 3
            }
          ]
        },
        {
	      "conditions": [
	        {
	          "condition": "random_chance_with_looting",
	          "chance": 0.005,
	          "looting_multiplier": 0.001
	        }
	      ],
          "type": "item",
          "weight": 2,
          "quality": 2,
          "name": "minecraft:skull",
          "functions": [
            {
              "function": "set_nbt",
              "tag": "{display:{Name:\"§rAngry Enbee\"},SkullOwner:{Id:\"4d2e044c-0d1f-55a5-888a-ca7b315a0a3d\",Properties:{textures:[{Value:\"eyJ0ZXh0dXJlcyI6eyJTS0lOIjp7InVybCI6Imh0dHA6Ly90ZXh0dXJlcy5taW5lY3JhZnQubmV0L3RleHR1cmUvMTA2M2I5OWU5MjJhYTRmMTA0YzY4NGNlMzI4NmI1YTM3Y2EyOThhZWZiMGE0OTFiNWU4MjdlN2Y5OTFlOWQyMyJ9fX0=\"}]},Name:\"Angry Enbee\"}}"
            },
            {
              "function": "set_data",
              "data": 3
            }
          ]
        }
      ]
    },
    {
      "rolls": 1,
      "bonus_rolls": 1,
      "entries": [
        {
	      "conditions": [
	        {
	          "condition": "random_chance_with_looting",
	          "chance": 0.03,
	          "looting_multiplier": 0.005
	        }
	      ],
          "type": "item",
          "name": "minecraft:potion",
          "functions": [
            {
              "function": "set_nbt",
              "tag": "{display:{Name:\"§rNonbinary Honey\"},CustomPotionColor:10312146,HideFlags:32}"
            }
          ]
        }
      ]
    }
  ]
}
