{
  "pools": [
    {
      "rolls": 1,
      "bonus_rolls": 1,
      "entries": [
        {
          "conditions": [
            {
              "condition": "random_chance_with_looting",
              "chance": 0.1,
              "looting_multiplier": 0.05
            }
          ],
          "type": "item",
          "name": "minecraft:paper",
          "functions": [
            {
              "function": "set_nbt",
              "tag": "{display:{Name:\"§aLove Letter\",Lore:[\"§7A letter of love\",\"§7Reading it is probably an act of Obstruction of Correspondence!\",\"§a[α]\"]}}"
            },
            {
              "function": "set_count",
              "count": {
                "min": 1,
                "max": 3
              }
            }
          ]
        }
      ]
    },
    {
      "rolls": 1,
      "bonus_rolls": 1,
      "entries": [
        {
          "conditions": [
            {
              "condition": "random_chance_with_looting",
              "chance": 0.01,
              "looting_multiplier": 0.005
            }
          ],
          "type": "item",
          "name": "minecraft:bow",
          "functions": [
            {
              "function": "set_nbt",
              "tag": "{display:{Name:\"§5Bow d'énamoration\",Lore:[\"§7An infatuating bow that strikes those it hits with feelings of love\",\"§7Feels like being shot by any other bow!\",\"§5[Γ]\"]}}"
            },
            {
              "function": "set_damage",
              "damage": {
                "min": 0.25,
                "max": 0.75
              }
            },
            {
              "function": "minecraft:enchant_randomly",
              "enchantments": [
                "minecraft:power"
              ]
            },
            {
              "function": "minecraft:enchant_randomly",
              "enchantments": [
                "minecraft:mending"
              ]
            },
            {
              "function": "minecraft:enchant_randomly",
              "enchantments": [
                "minecraft:unbreaking"
              ]
            }
          ]
        }
      ]
    },
    {
      "rolls": 1,
      "bonus_rolls": 1,
      "entries": [
        {
          "conditions": [
            {
              "condition": "random_chance_with_looting",
              "chance": 0.01,
              "looting_multiplier": 0.005
            }
          ],
          "type": "item",
          "name": "minecraft:leather_helmet",
          "functions": [
            {
              "function": "set_nbt",
              "tag": "{display:{Lore:[\"§7Valentine's Day 2025\"],color:13052752}}"
            }
          ]
        }
      ]
    },
    {
      "rolls": 1,
      "bonus_rolls": 1,
      "entries": [
        {
          "conditions": [
            {
              "condition": "random_chance_with_looting",
              "chance": 0.01,
              "looting_multiplier": 0.005
            }
          ],
          "type": "item",
          "name": "minecraft:leather_chestplate",
          "functions": [
            {
              "function": "set_nbt",
              "tag": "{display:{Lore:[\"§7Valentine's Day 2025\"],color:13052752}}"
            }
          ]
        }
      ]
    },
    {
      "rolls": 1,
      "bonus_rolls": 1,
      "entries": [
        {
          "conditions": [
            {
              "condition": "random_chance_with_looting",
              "chance": 0.01,
              "looting_multiplier": 0.005
            }
          ],
          "type": "item",
          "name": "minecraft:leather_leggings",
          "functions": [
            {
              "function": "set_nbt",
              "tag": "{display:{Lore:[\"§7Valentine's Day 2025\"],color:13052752}}"
            }
          ]
        }
      ]
    },
    {
      "rolls": 1,
      "bonus_rolls": 1,
      "entries": [
        {
          "conditions": [
            {
              "condition": "random_chance_with_looting",
              "chance": 0.01,
              "looting_multiplier": 0.005
            }
          ],
          "type": "item",
          "name": "minecraft:leather_boots",
          "functions": [
            {
              "function": "set_nbt",
              "tag": "{display:{Lore:[\"§7Valentine's Day 2025\"],color:13052752}}"
            }
          ]
        }
      ]
    },
    {
      "rolls": 1,
      "entries": [
        {
          "type": "item",
          "name": "minecraft:skull",
          "functions": [
            {
              "function": "set_nbt",
              "tag": "{display:{Name:\"§rPotted Roses\"},SkullOwner:{Id:\"b0b5442e-fecc-5214-afb7-7708449fb270\",Properties:{textures:[{Value:\"eyJ0ZXh0dXJlcyI6eyJTS0lOIjp7InVybCI6Imh0dHA6Ly90ZXh0dXJlcy5taW5lY3JhZnQubmV0L3RleHR1cmUvYTEyZDRmMWY1Yjk5MWQ5MzA3M2NmZDAwMGVjMjc0NzU4ZWY4NTIyMzkxYTYwNmQxZDhhNjhjYWIzY2JiNzc0OCJ9fX0=\"}]},Name:\"Potted Roses\"}}"
            },
            {
              "function": "set_data",
              "data": 3
            }
          ]
        }
      ]
    }
  ]
}
  