{
  "pools": [
    {
      "rolls": 1,
      "entries": [{
        "type": "item",
        "name": "minecraft:golden_apple",
        "functions": [
          {
            "function": "minecraft:set_data",
            "data": 1
          }
        ]
      }]
    },
    {
      "rolls": 1,
      "entries": [{
        "type": "item",
        "name": "minecraft:fire_charge",
        "functions": [
          {
            "function": "set_count",
            "count": {
              "min": 1,
              "max": 4
            }
          }
        ]
      }]
    }
  ]
}
