{
    "pools": [
      {
        "rolls": 1,
        "entries": [
          {
            "type": "item",
            "name": "minecraft:gold_ingot",
            "functions": [
              {
                "function": "set_count",
                "count": {
                  "min": 0,
                  "max": 2
                }
              },
              {
                "function": "looting_enchant",
                "count": {
                  "min": 0,
                  "max": 1
                },
                "limit": 2
              }
            ]
          }
        ]
      },
      {
        "rolls": 1,
        "bonus_rolls": 1,
        "entries": [
          {
            "conditions": [
              {
                "condition": "random_chance_with_looting",
                "chance": 0.05,
                "looting_multiplier": 0.05
              }
            ],
            "type": "item",
            "weight": 4,
            "name": "minecraft:potion",
            "functions": [
              {
                "function": "set_nbt",
                "tag": "{Potion:\"minecraft:regeneration\",CustomPotionColor:14978211,display:{Name:\"§1Love Potion\",Lore:[\"§7A potion said to make a person fall in love with whomever crafted it\",\"§7It's expired now, therefore it no longer works as advertised\",\"§1[β]\"]}}"
              }
            ]
          }
        ]
      },
      {

        "rolls": 1,
        "bonus_rolls": 1,
        "entries": [
          {
             "conditions": [
              {
                "condition": "random_chance_with_looting",
                "chance": 0.05,
                "looting_multiplier": 0.01
              }
            ],
            "type": "item",
            "name": "minecraft:spider_eye",
            "functions": [
              {
                "function": "set_nbt",
                "tag": "{display:{Name:\"§aForgotten Words\",Lore:[\"§7Half a heart for half a promise\",\"§a[α]\"]}}"
              }
            ]
          }
        ]
      },
      {
        "rolls": 1,
        "bonus_rolls": 1,
        "entries": [
          {
            "conditions": [
              {
                "condition": "random_chance_with_looting",
                "chance": 0.05,
                "looting_multiplier": 0.01
              }
            ],
            "type": "item",
            "name": "minecraft:paper",
            "functions": [
              {
                "function": "set_nbt",
                "tag": "{display:{Name:\"§aLove Letter\",Lore:[\"§7A letter of love\",\"§7Reading it is probably an act of Obstruction of Correspondence!\",\"§a[α]\"]}}"
              }
            ]
          }
        ]
      }
    ]
  }
  