{
  "pools": [
    {
      "rolls": 1,
      "entries": [
        {
          "type": "item",
          "name": "minecraft:rotten_flesh",
          "functions": [
            {
              "function": "set_count",
              "count": {
                "min": 0,
                "max": 2
              }
            },
            {
              "function": "looting_enchant",
              "count": {
                "min": 0,
                "max": 1
              }
            }
          ]
        }
      ]
    },
    {
      "conditions": [
        {
          "condition": "random_chance_with_looting",
          "chance": 0.3,
          "looting_multiplier": 0.1
        }
      ],
      "rolls": 1,
      "entries": [
        {
          "type": "item",
          "weight": 4,
          "name": "minecraft:lingering_potion",
          "functions": [
            {
              "function": "set_nbt",
              "tag": "{Potion:harming}"
            }
          ]
        },
        {
          "type": "item",
          "weight": 3,
          "quality": 1,
          "name": "minecraft:lingering_potion",
          "functions": [
            {
              "function": "set_nbt",
              "tag": "{Potion:healing}"
            }
          ]
        }
      ]
    },
    {
      "rolls": 1,
      "bonus_rolls": 1,
      "entries": [
        {
	      "conditions": [
	        {
	          "condition": "random_chance_with_looting",
	          "chance": 0.005,
	          "looting_multiplier": 0.001
	        }
	      ],
          "type": "item",
          "name": "minecraft:enchanted_book",
          "functions": [
            {
              "function": "set_nbt",
              "tag": "{display:{Name:\"§1Sacred texts\",Lore:[\"§7Old writings lost to the sways of time\",\"§7Its delicate pages refuse to part, best not to force them\",\"§1[β]\"]}}"
            }
          ]
        }
      ]
    }
  ]
}
