{
  "pools": [
    {
      "rolls": 1,
      "entries": [
        {
          "type": "item",
          "name": "minecraft:stained_hardened_clay",
          "functions": [
            {
              "function": "set_count",
              "count": {
                "min": 1,
                "max": 4
              }
            },
            {
              "function": "looting_enchant",
              "count": {
                "min": 1,
                "max": 2
              }
            },
            {
              "function": "set_data",
              "data": 4
            }
          ]
        }
      ]
    },
    {
      "rolls": 1,
      "bonus_rolls": 1,
      "entries": [
        {
          "conditions": [
            {
              "condition": "random_chance_with_looting",
              "chance": 0.20,
              "looting_multiplier": 0.05
            }
          ],
          "type": "item",
          "name": "minecraft:potion",
          "functions": [
            {
              "function": "set_nbt",
              "tag": "{CustomPotionEffects:[{Id:1,Amplifier:1,Duration:1800},{Id:10,Amplifier:1,Duration:400},{Id:22,Amplifier:2,Duration:4800}],CustomPotionColor:16101432,display:{Name:\"§6Royal Honey\",Lore:[\"§eQueen bee extract with health restoring properties and a sweet taste\",\"§6Crown included!\",\"§1[β]\"]}}"
            }
          ]
        }
      ]
    },
    {
      "rolls": 1,
      "entries": [
        {
          "type": "item",
          "name": "minecraft:skull",
          "functions": [
            {
              "function": "set_nbt",
              "tag": "{display:{Name:\"§rHoney Pot\"},SkullOwner:{Id:\"ff846b74-aa4d-5fcf-8f91-7f1034bb0b35\",Properties:{textures:[{Value:\"eyJ0ZXh0dXJlcyI6eyJTS0lOIjp7InVybCI6Imh0dHA6Ly90ZXh0dXJlcy5taW5lY3JhZnQubmV0L3RleHR1cmUvNTk2MzU3ZGJiMjM0NjMzMWYwNjQ5MDYwMDMyN2MyYzJkNzhlYmZiY2E2MWJlNGU2MzVhMTYzZWU2YWJiZDRmNyJ9fX0=\"}]},Name:\"Honey Pot\"}}"
            },
            {
              "function": "set_data",
              "data": 3
            }
          ]
        }
      ]
    },
    {
      "rolls": 1,
      "bonus_rolls": 1,
      "entries": [
        {
          "conditions": [
            {
              "condition": "random_chance_with_looting",
              "chance": 0.01,
              "looting_multiplier": 0.005
            }
          ],
          "type": "item",
          "name": "minecraft:elytra",
          "functions": [
            {
              "function": "set_nbt",
              "tag": "{display:{Name:\"§5Bee Wings\",Lore:[\"§7A pair of large insect wings\",\"§5[Γ]\"]}}"
            },
            {
            "function": "set_damage",
            "damage": 0.0023
            }
          ]
        }
      ]
    }
  ]
}