{
  "pools": [
    {
      "rolls": 1,
      "bonus_rolls": 1,
      "entries": [{
        "conditions": [
          {
            "condition": "random_chance_with_looting",
            "chance": 0.11,
            "looting_multiplier": 0.03
          }
        ],
        "type": "item",
        "name": "minecraft:ender_eye",
        "functions": [
          {
            "function": "set_nbt",
            "tag": "{display:{Name:\"§7Robot Dragon Eye\"}}"
          }
        ]
      }]
    },
    {
      "rolls": 1,
      "entries": [{
        "type": "item",
        "name": "minecraft:elytra",
        "functions": [
          {
            "conditions": [
              {
                "condition": "random_chance_with_looting",
                "chance": 0.011,
                "looting_multiplier": 0.003
              }
            ],
            "function": "set_nbt",
            "tag": "{display:{Name:\"§dDragon Wings\"}}"
          }
        ]
      }]
    },
    {
      "rolls": 1,
      "entries": [{
          "type": "item",
          "name": "minecraft:skull",
          "functions": [
            {
              "function": "set_data",
              "data": 5
            }
          ]
        }
      ]
    }
  ]
}
