{
  "pools": [
    {
      "rolls": 1,
      "entries": [
        {
          "type": "item",
          "name": "minecraft:rotten_flesh",
          "functions": [
            {
              "function": "set_count",
              "count": {
                "min": 0,
                "max": 2
              }
            },
            {
              "function": "looting_enchant",
              "count": {
                "min": 0,
                "max": 1
              }
            }
          ]
        }
      ]
    },
    {
      "rolls": {
        "min": 3,
        "max": 5
      },
      "bonus_rolls": 2,
      "entries": [
        {
          "type": "item",
          "name": "minecraft:iron_nugget",
          "functions": [
            {
              "function": "set_nbt",
              "tag": "{display:{Name:\"§aShrapnel\",Lore:[\"§7Pieces of metal you found lodged in a zombie's body\",\"§7Why are you collecting these???\",\"§a[α]\"]}}"
            }
          ],
          "conditions": [
            {
              "condition": "random_chance_with_looting",
              "chance": 0.15,
              "looting_multiplier": 0.05
            }
          ]
        }
      ]
    }
  ]
}
