{
  "pools": [
    {
      "rolls": 1,
      "entries": [
        {
          "type": "item",
          "name": "minecraft:netherbrick",
          "functions": [
            {
              "function": "set_count",
              "count": {
                "min": 1,
                "max": 4
              }
            },
            {
              "function": "looting_enchant",
              "count": {
                "min": 0,
                "max": 1
              },
            "limit": 4
            }
          ]
        }
      ]
    },
    {
      "rolls": 1,
      "entries": [
        {
          "type": "item",
          "name": "minecraft:magenta_shulker_box",
          "conditions": [
            {
            "condition": "random_chance",
            "chance": 0.01
            }
          ]
        }
      ]
    },
    {
      "rolls": 1,
      "entries": [
        {
          "type": "loot_table",
          "name": "minecraft:entities/shulker"
        }
      ]
    },
    {
      "rolls": 1,
      "bonus_rolls": 1,
      "entries": [
        {
	      "conditions": [
	        {
	          "condition": "random_chance_with_looting",
	          "chance": 0.005,
	          "looting_multiplier": 0.001
	        }
	      ],
          "type": "item",
          "weight": 3,
          "name": "minecraft:skull",
          "functions": [
            {
              "function": "set_nbt",
              "tag": "{SkullOwner:{Id:\"22e6084c-f7f3-556b-b225-8fed837aab3b\",Properties:{textures:[{Value:\"eyJ0ZXh0dXJlcyI6eyJTS0lOIjp7InVybCI6Imh0dHA6Ly90ZXh0dXJlcy5taW5lY3JhZnQubmV0L3RleHR1cmUvYmI2MGJmYjI1YTA4ZDk3YzM3NWI0MjY4NzNkNmY1YTExYTgzMTg2ZTUxZTZkYzUyNDMyMjBjMTJkNWQxZTJmNSJ9fX0=\"}]},Name:\"Magenta Shulker\"}}"
            },
            {
              "function": "set_data",
              "data": 3
            }
          ]
        },
        {
	      "conditions": [
	        {
	          "condition": "random_chance_with_looting",
	          "chance": 0.005,
	          "looting_multiplier": 0.001
	        }
	      ],
          "type": "item",
          "weight": 2,
          "name": "minecraft:skull",
          "functions": [
            {
              "function": "set_nbt",
              "tag": "{SkullOwner:{Id:\"53b35092-7d05-59f8-acd2-0fcd8293be0e\",Properties:{textures:[{Value:\"eyJ0ZXh0dXJlcyI6eyJTS0lOIjp7InVybCI6Imh0dHA6Ly90ZXh0dXJlcy5taW5lY3JhZnQubmV0L3RleHR1cmUvOTUxZWZiM2RiODA2MTI1Zjg0MzMwMTU1NzExNjdmZjRkOGFlNWI2ZDJiZjQ4OTNmMGYxNDIwNGU5NDUyNjViYyJ9fX0=\"}]},Name:\"Magenta Shulker Open\"}}"
            },
            {
              "function": "set_data",
              "data": 3
            }
          ]
        }
      ]
    }
  ]
}
