{
  "pools": [{
      "rolls": 1,
      "entries": [{
          "type": "item",
          "name": "minecraft:nether_star",
          "weight": 1,
          "functions": [{
              "function": "set_count",
              "count": {
                "min": 0,
                "max": 1
              }
            },
            {
              "function": "looting_enchant",
              "count": {
                "min": 0,
                "max": 1
              },
              "limit": 1
            }
          ]
        },
        {
          "type": "item",
          "name": "minecraft:soul_sand",
          "weight": 5,
          "functions": [{
              "function": "set_count",
              "count": {
                "min": 1,
                "max": 2
              }
            },
            {
              "function": "looting_enchant",
              "count": {
                "min": 0,
                "max": 1
              },
              "limit": 3
            }
          ]
        }
      ]
    },
    {
      "rolls": 1,
      "entries": [{
        "type": "item",
        "name": "minecraft:gray_shulker_box",
        "conditions": [{
          "condition": "random_chance",
          "chance": 0.01
        }]
      }]
    },
    {
      "rolls": 1,
      "entries": [{
        "type": "loot_table",
        "name": "minecraft:entities/shulker"
      }]
    },
    {
      "rolls": 1,
      "bonus_rolls": 1,
      "entries": [{
	      "conditions": [{
	        "condition": "random_chance_with_looting",
	        "chance": 0.005,
	        "looting_multiplier": 0.001
	      }],
          "type": "item",
          "weight": 3,
          "name": "minecraft:skull",
          "functions": [{
              "function": "set_nbt",
              "tag": "{SkullOwner:{Id:\"5b378a35-eceb-52e4-968b-60b6b4998ab8\",Properties:{textures:[{Value:\"eyJ0ZXh0dXJlcyI6eyJTS0lOIjp7InVybCI6Imh0dHA6Ly90ZXh0dXJlcy5taW5lY3JhZnQubmV0L3RleHR1cmUvZTMyNDAyZDVkMGIxNWViMDk5YmQ1MDk3MDFhNWI3NzA1YjBiOGEzNjAwZjlmZTU3ZDU0OGY5OTQxZTdiNDJmZiJ9fX0=\"}]},Name:\"Gray Shulker\"}}"
            },
            {
              "function": "set_data",
              "data": 3
            }
          ]
        },
        {
	      "conditions": [{
	        "condition": "random_chance_with_looting",
	        "chance": 0.005,
	        "looting_multiplier": 0.001
	      }],
          "type": "item",
          "weight": 2,
          "name": "minecraft:skull",
          "functions": [{
              "function": "set_nbt",
              "tag": "{SkullOwner:{Id:\"1775e68e-6583-5408-8f6f-7d82a8fe99ab\",Properties:{textures:[{Value:\"eyJ0ZXh0dXJlcyI6eyJTS0lOIjp7InVybCI6Imh0dHA6Ly90ZXh0dXJlcy5taW5lY3JhZnQubmV0L3RleHR1cmUvNWQ3NWVlZmZjODlhOGY1NjFkZTExOTU2MWI3MzkyN2QxNzA4NGRmYzcxYWNmOGNmNmNjMjIzZDYxMjBlMWRiMyJ9fX0=\"}]},Name:\"Gray Shulker Open\"}}"
            },
            {
              "function": "set_data",
              "data": 3
            }
          ]
        }
      ]
    }
  ]
}
