{
  "pools": [
    {
      "rolls": 1,
      "entries": [
        {
          "type": "item",
          "name": "minecraft:ghast_tear",
          "conditions": [
            {
              "condition": "random_chance_with_looting",
              "chance": 0.5,
              "looting_multiplier": 0.1
            }
          ]
        }
      ]
    },
    {
      "rolls": 1,
      "entries": [
        {
          "type": "item",
          "name": "minecraft:pink_shulker_box",
          "conditions": [
            {
              "condition": "random_chance",
              "chance": 0.01
            }
          ]
        }
      ]
    },
    {
      "rolls": 1,
      "entries": [
        {
          "type": "loot_table",
          "name": "minecraft:entities/shulker"
        }
      ]
    },
    {
      "rolls": 1,
      "bonus_rolls": 1,
      "entries": [
        {
	      "conditions": [
	        {
	          "condition": "random_chance_with_looting",
	          "chance": 0.005,
	          "looting_multiplier": 0.001
	        }
	      ],
          "type": "item",
          "weight": 3,
          "name": "minecraft:skull",
          "functions": [
            {
              "function": "set_nbt",
              "tag": "{SkullOwner:{Id:\"ae5757ed-cf9c-57b4-99f0-3d4d88e144f1\",Properties:{textures:[{Value:\"eyJ0ZXh0dXJlcyI6eyJTS0lOIjp7InVybCI6Imh0dHA6Ly90ZXh0dXJlcy5taW5lY3JhZnQubmV0L3RleHR1cmUvNDg3MDM1ZmEwZjNmZjExM2U0ZDk1MjJjMWM2ZjEwNWRiZTIyZDAxODFmZjg3MzMwYjI0MTgzNTZjYjI1OWE5OSJ9fX0=\"}]},Name:\"Pink Shulker\"}}"
            },
            {
              "function": "set_data",
              "data": 3
            }
          ]
        },
        {
	      "conditions": [
	        {
	          "condition": "random_chance_with_looting",
	          "chance": 0.005,
	          "looting_multiplier": 0.001
	        }
	      ],
          "type": "item",
          "weight": 2,
          "name": "minecraft:skull",
          "functions": [
            {
              "function": "set_nbt",
              "tag": "{SkullOwner:{Id:\"dfd259cc-742e-5f43-99eb-43d047b2f57a\",Properties:{textures:[{Value:\"eyJ0ZXh0dXJlcyI6eyJTS0lOIjp7InVybCI6Imh0dHA6Ly90ZXh0dXJlcy5taW5lY3JhZnQubmV0L3RleHR1cmUvOTA3MTE3N2NlY2EwYTkxNmYwM2NjNTk2MzNlNmU4YmY0OTgyMWU3OGUxZWU1ODZlZDM5YjM0MDcwMDhmMjk2YiJ9fX0=\"}]},Name:\"Pink Shulker Open\"}}"
            },
            {
              "function": "set_data",
              "data": 3
            }
          ]
        }
      ]
    }
  ]
}
