{
  "pools": [
    {
      "rolls": 1,
      "bonus_rolls": 1,
      "entries": [
        {
          "conditions": [{
            "condition": "random_chance_with_looting",
            "chance": 0.005,
            "looting_multiplier": 0.001
          }],
          "type": "item",
          "name": "minecraft:skull",
          "functions": [{
              "function": "set_nbt",
              "tag": "{display:{Name:\"§rZombee\"},SkullOwner:{Id:\"5fa8658b-74e7-5fe0-8d5c-e9b3d71ddc14\",Properties:{textures:[{Value:\"eyJ0ZXh0dXJlcyI6eyJTS0lOIjp7InVybCI6Imh0dHA6Ly90ZXh0dXJlcy5taW5lY3JhZnQubmV0L3RleHR1cmUvNmM1NTczZGU5ZjZhODgyMzNiMDBhMmYzOTNkMzk1ZjczOGQ3YzM3ZGY3MWZmMThjNTM1MmIwMDM2NmRlMmU0MSJ9fX0=\"}]},Name:\"Zombee\"}}"
            },
            {
              "function": "set_data",
              "data": 3
            }
          ]
        }
      ]
    },
    {
      "rolls": 1,
      "entries": [
        {
          "type": "item",
          "name": "minecraft:rotten_flesh",
          "weight": 3,
          "quality": -1
        },
        {
          "type": "empty",
          "weight": 1
        }
      ]
    }
  ]
}
