{
    "pools": [
      {
        "rolls": 1,
        "entries": [
          {
            "type": "item",
            "name": "minecraft:rotten_flesh",
            "functions": [
              {
                "function": "set_count",
                "count": {
                  "min": 0,
                  "max": 2
                }
              },
              {
                "function": "looting_enchant",
                "count": {
                  "min": 0,
                  "max": 1
                }
              }
            ]
          }
        ]
      },
      {
        "rolls": 1,
        "bonus_rolls": 1,
        "entries": [
          {
	        "conditions": [
	          {
	            "condition": "random_chance_with_looting",
	            "chance": 0.005,
	            "looting_multiplier": 0.001
	          }
	        ],
            "type": "item",
            "name": "minecraft:bone",
            "functions": [
              {
                "function": "set_nbt",
                "tag": "{display:{Name:\"§1Bone chew toy\",Lore:[\"§7The toy of trusted friend\",\"§7Kinda messed up how you got this\",\"§1[β]\"]}}"
              }
            ]
          }
        ]
      }
    ]
  }
